{
	"info": {
		"_postman_id": "904419a3-41d1-472e-b588-987b11fa7371",
		"name": "JobStop API",
		"schema": "https://schema.getpostman.com/json/collection/v2.1.0/collection.json"
	},
	"item": [
		{
			"name": "cities",
			"item": [
				{
					"name": "Returns summary of city given the city ID, or all cities if none is specified",
					"event": [
						{
							"listen": "test",
							"script": {
								"id": "35d3e7f5-ebed-4851-ab01-82f89cd1c499",
								"exec": [
									"pm.test(\"Status code is 200\", function () {\r",
									"\tpm.response.to.have.status(200);\r",
									"\tpm.response.to.be.ok;\r",
									"\tpm.response.to.be.json;\r",
									"});"
								],
								"type": "text/javascript"
							}
						}
					],
					"request": {
						"method": "GET",
						"header": [],
						"url": {
							"raw": "{{baseUrl}}/cities/summary?cityIdx=503",
							"host": [
								"{{baseUrl}}"
							],
							"path": [
								"cities",
								"summary"
							],
							"query": [
								{
									"key": "cityIdx",
									"value": "503",
									"description": "ID of city"
								}
							]
						}
					},
					"response": [
						{
							"name": "Returns summary of city given the city ID",
							"originalRequest": {
								"method": "GET",
								"header": [],
								"url": {
									"raw": "{{baseUrl}}/cities/summary?cityIdx=<integer>",
									"host": [
										"{{baseUrl}}"
									],
									"path": [
										"cities",
										"summary"
									],
									"query": [
										{
											"key": "cityIdx",
											"value": "<integer>"
										}
									]
								}
							},
							"status": "OK",
							"code": 200,
							"_postman_previewlanguage": "json",
							"header": [
								{
									"key": "x-next",
									"value": "Excepteur proident pariatur",
									"description": "A link to the next page of responses"
								},
								{
									"key": "Content-Type",
									"value": "application/json"
								}
							],
							"cookie": [],
							"body": "[\n {\n  \"MPLFAH\": 75400051,\n  \"MRPAH\": -29902679,\n  \"MRPFAH\": -7623647,\n  \"PHDVAH\": -27754615,\n  \"PHIVAH\": -62420733,\n  \"id\": 81284067\n },\n {\n  \"MPLFAH\": 32886248,\n  \"MRPAH\": 34837023,\n  \"MRPFAH\": -81547660,\n  \"PHDVAH\": -33984382,\n  \"PHIVAH\": -12583491,\n  \"id\": 81093549\n }\n]"
						},
						{
							"name": "Unexpected error",
							"originalRequest": {
								"method": "GET",
								"header": [],
								"url": {
									"raw": "{{baseUrl}}/cities/summary?cityIdx=<integer>",
									"host": [
										"{{baseUrl}}"
									],
									"path": [
										"cities",
										"summary"
									],
									"query": [
										{
											"key": "cityIdx",
											"value": "<integer>"
										}
									]
								}
							},
							"status": "Internal Server Error",
							"code": 500,
							"_postman_previewlanguage": "json",
							"header": [
								{
									"key": "Content-Type",
									"value": "application/json"
								}
							],
							"cookie": [],
							"body": "{\n \"code\": -73497317,\n \"message\": \"in nostrud\"\n}"
						}
					]
				},
				{
					"name": "Returns climate, job, and housing data of a specific city",
					"request": {
						"method": "GET",
						"header": [],
						"url": {
							"raw": "{{baseUrl}}/cities/cityData?cityIdx=503",
							"host": [
								"{{baseUrl}}"
							],
							"path": [
								"cities",
								"cityData"
							],
							"query": [
								{
									"key": "cityIdx",
									"value": "503",
									"description": "(Required) ID of city"
								}
							]
						}
					},
					"response": [
						{
							"name": "Unexpected error",
							"originalRequest": {
								"method": "GET",
								"header": [],
								"url": {
									"raw": "{{baseUrl}}/cities/cityData?cityIdx=<integer>",
									"host": [
										"{{baseUrl}}"
									],
									"path": [
										"cities",
										"cityData"
									],
									"query": [
										{
											"key": "cityIdx",
											"value": "<integer>"
										}
									]
								}
							},
							"status": "Internal Server Error",
							"code": 500,
							"_postman_previewlanguage": "json",
							"header": [
								{
									"key": "Content-Type",
									"value": "application/json"
								}
							],
							"cookie": [],
							"body": "{\n \"code\": -73497317,\n \"message\": \"in nostrud\"\n}"
						},
						{
							"name": "Returns summary of city given the city ID",
							"originalRequest": {
								"method": "GET",
								"header": [],
								"url": {
									"raw": "{{baseUrl}}/cities/cityData?cityIdx=<integer>",
									"host": [
										"{{baseUrl}}"
									],
									"path": [
										"cities",
										"cityData"
									],
									"query": [
										{
											"key": "cityIdx",
											"value": "<integer>"
										}
									]
								}
							},
							"status": "OK",
							"code": 200,
							"_postman_previewlanguage": "json",
							"header": [
								{
									"key": "x-next",
									"value": "Excepteur proident pariatur",
									"description": "A link to the next page of responses"
								},
								{
									"key": "Content-Type",
									"value": "application/json"
								}
							],
							"cookie": [],
							"body": "[]"
						}
					]
				}
			],
			"protocolProfileBehavior": {}
		},
		{
			"name": "jobs",
			"item": [
				{
					"name": "Returns jobs summary or jobs by title or category",
					"request": {
						"method": "GET",
						"header": [],
						"url": {
							"raw": "{{baseUrl}}/jobs?by=summary",
							"host": [
								"{{baseUrl}}"
							],
							"path": [
								"jobs"
							],
							"query": [
								{
									"key": "by",
									"value": "summary"
								}
							]
						}
					},
					"response": [
						{
							"name": "List of locations filtered by temperature lower bound",
							"originalRequest": {
								"method": "GET",
								"header": [],
								"url": {
									"raw": "{{baseUrl}}/jobs?by=<string>&value=<string>",
									"host": [
										"{{baseUrl}}"
									],
									"path": [
										"jobs"
									],
									"query": [
										{
											"key": "by",
											"value": "<string>"
										},
										{
											"key": "value",
											"value": "<string>"
										}
									]
								}
							},
							"status": "OK",
							"code": 200,
							"_postman_previewlanguage": "json",
							"header": [
								{
									"key": "x-next",
									"value": "Excepteur proident pariatur",
									"description": "A link to the next page of responses"
								},
								{
									"key": "Content-Type",
									"value": "application/json"
								}
							],
							"cookie": [],
							"body": "[\n {\n  \"category\": \"in\",\n  \"company\": \"laborum incididunt esse\",\n  \"location\": \"sed Excepteur fugiat\",\n  \"title\": \"dolore irure aliquip deserunt dolor\",\n  \"type\": \"dolore\"\n },\n {\n  \"category\": \"culpa Duis repr\",\n  \"company\": \"Duis fugiat\",\n  \"location\": \"enim laboris ut esse\",\n  \"title\": \"anim\",\n  \"type\": \"exercitation quis ea\"\n }\n]"
						},
						{
							"name": "Unexpected error",
							"originalRequest": {
								"method": "GET",
								"header": [],
								"url": {
									"raw": "{{baseUrl}}/jobs?by=<string>&value=<string>",
									"host": [
										"{{baseUrl}}"
									],
									"path": [
										"jobs"
									],
									"query": [
										{
											"key": "by",
											"value": "<string>"
										},
										{
											"key": "value",
											"value": "<string>"
										}
									]
								}
							},
							"status": "Internal Server Error",
							"code": 500,
							"_postman_previewlanguage": "json",
							"header": [
								{
									"key": "Content-Type",
									"value": "application/json"
								}
							],
							"cookie": [],
							"body": "{\n \"code\": -73497317,\n \"message\": \"in nostrud\"\n}"
						}
					]
				},
				{
					"name": "Returns data for a job listing by listing id",
					"request": {
						"method": "GET",
						"header": [],
						"url": {
							"raw": "{{baseUrl}}/jobs/jobdata?jobIdx=1",
							"host": [
								"{{baseUrl}}"
							],
							"path": [
								"jobs",
								"jobdata"
							],
							"query": [
								{
									"key": "jobIdx",
									"value": "1",
									"description": "(Required) ID of the job listing"
								}
							]
						}
					},
					"response": [
						{
							"name": "Unexpected error",
							"originalRequest": {
								"method": "GET",
								"header": [],
								"url": {
									"raw": "{{baseUrl}}/jobs/jobdata?jobIdx=<integer>",
									"host": [
										"{{baseUrl}}"
									],
									"path": [
										"jobs",
										"jobdata"
									],
									"query": [
										{
											"key": "jobIdx",
											"value": "<integer>"
										}
									]
								}
							},
							"status": "Internal Server Error",
							"code": 500,
							"_postman_previewlanguage": "json",
							"header": [
								{
									"key": "Content-Type",
									"value": "application/json"
								}
							],
							"cookie": [],
							"body": "{\n \"code\": -73497317,\n \"message\": \"in nostrud\"\n}"
						},
						{
							"name": "data for a job listing",
							"originalRequest": {
								"method": "GET",
								"header": [],
								"url": {
									"raw": "{{baseUrl}}/jobs/jobdata?jobIdx=<integer>",
									"host": [
										"{{baseUrl}}"
									],
									"path": [
										"jobs",
										"jobdata"
									],
									"query": [
										{
											"key": "jobIdx",
											"value": "<integer>"
										}
									]
								}
							},
							"status": "OK",
							"code": 200,
							"_postman_previewlanguage": "json",
							"header": [
								{
									"key": "x-next",
									"value": "Excepteur proident pariatur",
									"description": "A link to the next page of responses"
								},
								{
									"key": "Content-Type",
									"value": "application/json"
								}
							],
							"cookie": [],
							"body": "[\n {\n  \"category\": \"deserunt Lorem ad id do\",\n  \"city_id\": -24182378,\n  \"company\": \"laborum in quis consectetur\",\n  \"contract_time\": \"tempor cillum ea\",\n  \"contract_type\": \"ut est\",\n  \"created\": \"sunt nulla aliqua\",\n  \"description\": \"in id velit Duis\",\n  \"id\": -97089080,\n  \"job_id\": 23357751,\n  \"latitude\": -89558175.91896081,\n  \"location\": \"ex\",\n  \"longitude\": -72003349.16707388,\n  \"redirect_url\": \"esse ad deserunt\",\n  \"title\": \"eu\"\n },\n {\n  \"category\": \"proident quis\",\n  \"city_id\": -48201257,\n  \"company\": \"cupidatat Ut\",\n  \"contract_time\": \"pariatur mollit non exercit\",\n  \"contract_type\": \"mollit ad aliquip irure\",\n  \"created\": \"proident sunt ex consequat\",\n  \"description\": \"eu Lorem\",\n  \"id\": 94204953,\n  \"job_id\": 81503312,\n  \"latitude\": 61606756.14491248,\n  \"location\": \"reprehenderit incididunt\",\n  \"longitude\": -79084107.16747668,\n  \"redirect_url\": \"anim magna culpa\",\n  \"title\": \"deseru\"\n }\n]"
						}
					]
				}
			],
			"protocolProfileBehavior": {}
		},
		{
			"name": "housing",
			"item": [
				{
					"name": "Returns housing prices given a city",
					"request": {
						"method": "GET",
						"header": [],
						"url": {
							"raw": "{{baseUrl}}/housing/cityPrices?city=Austin,%20Texas",
							"host": [
								"{{baseUrl}}"
							],
							"path": [
								"housing",
								"cityPrices"
							],
							"query": [
								{
									"key": "city",
									"value": "Austin,%20Texas",
									"description": "(Required) name of city"
								}
							]
						}
					},
					"response": [
						{
							"name": "List of locations filtered by precipitation",
							"originalRequest": {
								"method": "GET",
								"header": [],
								"url": {
									"raw": "{{baseUrl}}/housing/cityPrices?city=<string>",
									"host": [
										"{{baseUrl}}"
									],
									"path": [
										"housing",
										"cityPrices"
									],
									"query": [
										{
											"key": "city",
											"value": "<string>"
										}
									]
								}
							},
							"status": "OK",
							"code": 200,
							"_postman_previewlanguage": "json",
							"header": [
								{
									"key": "x-next",
									"value": "Excepteur proident pariatur",
									"description": "A link to the next page of responses"
								},
								{
									"key": "Content-Type",
									"value": "application/json"
								}
							],
							"cookie": [],
							"body": "[\n {\n  \"location_name\": \"aute consectetur nisi ex\",\n  \"location_temp_low\": -53625337,\n  \"location_temp_high\": -77163611,\n  \"location_precipitation\": 50841219,\n  \"location_weather_description\": \"commodo officia Duis quis n\"\n },\n {\n  \"location_name\": \"culpa proident\",\n  \"location_temp_low\": -70161672,\n  \"location_temp_high\": -51505308,\n  \"location_precipitation\": 95945875,\n  \"location_weather_description\": \"pariatur in non proident ipsum\"\n }\n]"
						},
						{
							"name": "Unexpected error",
							"originalRequest": {
								"method": "GET",
								"header": [],
								"url": {
									"raw": "{{baseUrl}}/housing/cityPrices?city=<string>",
									"host": [
										"{{baseUrl}}"
									],
									"path": [
										"housing",
										"cityPrices"
									],
									"query": [
										{
											"key": "city",
											"value": "<string>"
										}
									]
								}
							},
							"status": "Internal Server Error",
							"code": 500,
							"_postman_previewlanguage": "json",
							"header": [
								{
									"key": "Content-Type",
									"value": "application/json"
								}
							],
							"cookie": [],
							"body": "{\n \"code\": -73497317,\n \"message\": \"in nostrud\"\n}"
						}
					]
				},
				{
					"name": "Returns list of cities that have listings for given job title and optional parameters related to climate and housing",
					"request": {
						"method": "GET",
						"header": [],
						"url": {
							"raw": "{{baseUrl}}/housing/jobStop",
							"host": [
								"{{baseUrl}}"
							],
							"path": [
								"housing",
								"jobStop"
							]
						}
					},
					"response": [
						{
							"name": "List of cities",
							"originalRequest": {
								"method": "GET",
								"header": [],
								"url": {
									"raw": "{{baseUrl}}/housing/jobStop?jobTitle=<string>&climatelow=<integer>&climatehigh=<integer>&climaterain=<integer>&housingprice=<integer>&rentalprice=<integer>",
									"host": [
										"{{baseUrl}}"
									],
									"path": [
										"housing",
										"jobStop"
									],
									"query": [
										{
											"key": "jobTitle",
											"value": "<string>"
										},
										{
											"key": "climatelow",
											"value": "<integer>"
										},
										{
											"key": "climatehigh",
											"value": "<integer>"
										},
										{
											"key": "climaterain",
											"value": "<integer>"
										},
										{
											"key": "housingprice",
											"value": "<integer>"
										},
										{
											"key": "rentalprice",
											"value": "<integer>"
										}
									]
								}
							},
							"status": "OK",
							"code": 200,
							"_postman_previewlanguage": "json",
							"header": [
								{
									"key": "x-next",
									"value": "Excepteur proident pariatur",
									"description": "A link to the next page of responses"
								},
								{
									"key": "Content-Type",
									"value": "application/json"
								}
							],
							"cookie": [],
							"body": "[\n {\n  \"city_name\": \"voluptate cupidatat in\",\n  \"city_listings\": [\n   {\n    \"job_title\": \"irure fugiat dolor sit\",\n    \"job_company\": \"commodo\",\n    \"job_description\": \"eiusmod\",\n    \"job_category\": \"Ut nulla occaecat nostrud\",\n    \"job_employment_type\": \"labore\"\n   },\n   {\n    \"job_title\": \"amet offi\",\n    \"job_company\": \"veniam consequat\",\n    \"job_description\": \"adipisicing non\",\n    \"job_category\": \"Duis non proident aute\",\n    \"job_employment_type\": \"fugiat proident in\"\n   }\n  ]\n },\n {\n  \"city_name\": \"ea E\",\n  \"city_listings\": [\n   {\n    \"job_title\": \"ut laboris ut veniam\",\n    \"job_company\": \"officia commodo aliquip id\",\n    \"job_description\": \"velit minim elit exercitation\",\n    \"job_category\": \"aliqua velit labore\",\n    \"job_employment_type\": \"est sit qui in do\"\n   },\n   {\n    \"job_title\": \"id consectetur reprehenderit nisi\",\n    \"job_company\": \"pariatur dolore laborum reprehenderit\",\n    \"job_description\": \"enim dolore irure laboris cupidatat\",\n    \"job_category\": \"non eiusmod\",\n    \"job_employment_type\": \"esse quis\"\n   }\n  ]\n }\n]"
						},
						{
							"name": "Unexpected error",
							"originalRequest": {
								"method": "GET",
								"header": [],
								"url": {
									"raw": "{{baseUrl}}/housing/jobStop?jobTitle=<string>&climatelow=<integer>&climatehigh=<integer>&climaterain=<integer>&housingprice=<integer>&rentalprice=<integer>",
									"host": [
										"{{baseUrl}}"
									],
									"path": [
										"housing",
										"jobStop"
									],
									"query": [
										{
											"key": "jobTitle",
											"value": "<string>"
										},
										{
											"key": "climatelow",
											"value": "<integer>"
										},
										{
											"key": "climatehigh",
											"value": "<integer>"
										},
										{
											"key": "climaterain",
											"value": "<integer>"
										},
										{
											"key": "housingprice",
											"value": "<integer>"
										},
										{
											"key": "rentalprice",
											"value": "<integer>"
										}
									]
								}
							},
							"status": "Internal Server Error",
							"code": 500,
							"_postman_previewlanguage": "json",
							"header": [
								{
									"key": "Content-Type",
									"value": "application/json"
								}
							],
							"cookie": [],
							"body": "{\n \"code\": -73497317,\n \"message\": \"in nostrud\"\n}"
						}
					]
				}
			],
			"protocolProfileBehavior": {}
		},
		{
			"name": "Returns job listings filtered by title",
			"request": {
				"method": "GET",
				"header": [],
				"url": {
					"raw": "{{baseUrl}}/climate?by=summary",
					"host": [
						"{{baseUrl}}"
					],
					"path": [
						"climate"
					],
					"query": [
						{
							"key": "by",
							"value": "summary"
						}
					]
				}
			},
			"response": [
				{
					"name": "List of job instances",
					"originalRequest": {
						"method": "GET",
						"header": [],
						"url": {
							"raw": "{{baseUrl}}/climate?by=<string>&value=<string>",
							"host": [
								"{{baseUrl}}"
							],
							"path": [
								"climate"
							],
							"query": [
								{
									"key": "by",
									"value": "<string>"
								},
								{
									"key": "value",
									"value": "<string>"
								}
							]
						}
					},
					"status": "OK",
					"code": 200,
					"_postman_previewlanguage": "json",
					"header": [
						{
							"key": "x-next",
							"value": "Excepteur proident pariatur",
							"description": "A link to the next page of responses"
						},
						{
							"key": "Content-Type",
							"value": "application/json"
						}
					],
					"cookie": [],
					"body": "[\n {\n  \"job_title\": \"Ut ex laboris qui\",\n  \"job_company\": \"consectetur\",\n  \"job_description\": \"exercitation sed veniam mollit Excepteur\",\n  \"job_category\": \"minim reprehenderit\",\n  \"job_employment_type\": \"ullamco\"\n },\n {\n  \"job_title\": \"ad anim adipisicing commodo\",\n  \"job_company\": \"amet aliqua\",\n  \"job_description\": \"officia ut\",\n  \"job_category\": \"eiusmod dolor id incididunt occaecat\",\n  \"job_employment_type\": \"dolore voluptate\"\n }\n]"
				},
				{
					"name": "Unexpected error",
					"originalRequest": {
						"method": "GET",
						"header": [],
						"url": {
							"raw": "{{baseUrl}}/climate?by=<string>&value=<string>",
							"host": [
								"{{baseUrl}}"
							],
							"path": [
								"climate"
							],
							"query": [
								{
									"key": "by",
									"value": "<string>"
								},
								{
									"key": "value",
									"value": "<string>"
								}
							]
						}
					},
					"status": "Internal Server Error",
					"code": 500,
					"_postman_previewlanguage": "json",
					"header": [
						{
							"key": "Content-Type",
							"value": "application/json"
						}
					],
					"cookie": [],
					"body": "{\n \"code\": -73497317,\n \"message\": \"in nostrud\"\n}"
				}
			]
		}
	],
	"variable": [
		{
			"id": "baseUrl",
			"key": "baseUrl",
			"value": "https://api.jobstop.me",
			"type": "string"
		}
	],
	"protocolProfileBehavior": {}
}